%YAML 1.1
%TAG !u! tag:unity3d.com,2011:
--- !u!74 &7400000
AnimationClip:
  m_ObjectHideFlags: 0
  m_CorrespondingSourceObject: {fileID: 0}
  m_PrefabInstance: {fileID: 0}
  m_PrefabAsset: {fileID: 0}
  m_Name: SGPRWalk
  serializedVersion: 6
  m_Legacy: 0
  m_Compressed: 0
  m_UseHighQualityCurve: 1
  m_RotationCurves: []
  m_CompressedRotationCurves: []
  m_EulerCurves: []
  m_PositionCurves: []
  m_ScaleCurves: []
  m_FloatCurves: []
  m_PPtrCurves:
  - curve:
    - time: 0
      value: {fileID: 21300000, guid: 8cc3a8a0b3c12dd48a25728eed3f3913, type: 3}
    - time: 0.083333336
      value: {fileID: 21300000, guid: b6ead96073d1ede489eb39ddbaba599b, type: 3}
    - time: 0.16666667
      value: {fileID: 21300000, guid: 025a5f2364816cd43887a71f1fc45c45, type: 3}
    - time: 0.25
      value: {fileID: 21300000, guid: c8acd0adb98f12847b956e7e657f73f1, type: 3}
    - time: 0.33333334
      value: {fileID: 21300000, guid: 0838ab18966263347a5b5ee9ea901fbc, type: 3}
    - time: 0.41666666
      value: {fileID: 21300000, guid: 513a3418632bba74fbc63ff698abd84b, type: 3}
    - time: 0.5
      value: {fileID: 21300000, guid: da9ced1973682304f8a4fca3a379a8cc, type: 3}
    - time: 0.5833333
      value: {fileID: 21300000, guid: 6b829ac91fd1d03429f76ecfccda707a, type: 3}
    - time: 0.6666667
      value: {fileID: 21300000, guid: ae785df8c6aab804baea5dddadacdb3a, type: 3}
    - time: 0.75
      value: {fileID: 21300000, guid: ffa2cc8a681de0842a8eadb6f586ba6d, type: 3}
    - time: 0.8333333
      value: {fileID: 21300000, guid: 3a491492bad63a84d9dfd42ae8c7f2ed, type: 3}
    - time: 0.9166667
      value: {fileID: 21300000, guid: 477d094d283dc064db2af6d658377dc0, type: 3}
    - time: 1
      value: {fileID: 21300000, guid: a021525e0ae6adf4f9eb39d8f931ee72, type: 3}
    - time: 1.0833334
      value: {fileID: 21300000, guid: 88ab5623b7575794e9347c618f38454f, type: 3}
    - time: 1.1666666
      value: {fileID: 21300000, guid: 8dcd663cfa43cc147832240611d6ddb9, type: 3}
    - time: 1.25
      value: {fileID: 21300000, guid: 89aa7877ab1628a47b3c95071943af40, type: 3}
    - time: 1.3333334
      value: {fileID: 21300000, guid: 58abfdec8eb2b88478d44455e5d957c9, type: 3}
    - time: 1.4166666
      value: {fileID: 21300000, guid: 91057924ae727034eaa4ec173cd0149c, type: 3}
    - time: 1.5
      value: {fileID: 21300000, guid: f8a325660892bdb47a69ceaba2ea923b, type: 3}
    - time: 1.5833334
      value: {fileID: 21300000, guid: 33327d205c6874f459dfbf738d0b22ee, type: 3}
    - time: 1.6666666
      value: {fileID: 21300000, guid: 1cdbd58feafed904ebee1a03ad9d8d1f, type: 3}
    - time: 1.75
      value: {fileID: 21300000, guid: 4e23efb48fd6ef247a0078da9854e2d0, type: 3}
    - time: 1.8333334
      value: {fileID: 21300000, guid: d2fba5bea7772de4fabde62b82994eb3, type: 3}
    - time: 1.9166666
      value: {fileID: 21300000, guid: 118c10b984ba546429eec5fe529b263d, type: 3}
    - time: 2
      value: {fileID: 21300000, guid: fe8a477e24c2017488a6b902d29bc450, type: 3}
    - time: 2.0833333
      value: {fileID: 21300000, guid: 291ead297a3feb44fb05bdb797f0450d, type: 3}
    - time: 2.1666667
      value: {fileID: 21300000, guid: 55c86259c7f29d24993bdcca956684aa, type: 3}
    - time: 2.25
      value: {fileID: 21300000, guid: 102898da0b9e46f49a1d795af310bf07, type: 3}
    - time: 2.3333333
      value: {fileID: 21300000, guid: 8306448a4158197459af3fb560ec970b, type: 3}
    - time: 2.4166667
      value: {fileID: 21300000, guid: b8906db8a47ae3a4f8956d45531ee7d3, type: 3}
    - time: 2.5
      value: {fileID: 21300000, guid: 718dd2f3747fc8446bef45cb63491f41, type: 3}
    - time: 2.5833333
      value: {fileID: 21300000, guid: 164aea598e32b824f856697be8e66174, type: 3}
    attribute: m_Sprite
    path: 
    classID: 212
    script: {fileID: 0}
  m_SampleRate: 12
  m_WrapMode: 0
  m_Bounds:
    m_Center: {x: 0, y: 0, z: 0}
    m_Extent: {x: 0, y: 0, z: 0}
  m_ClipBindingConstant:
    genericBindings:
    - serializedVersion: 2
      path: 0
      attribute: 0
      script: {fileID: 0}
      typeID: 212
      customType: 23
      isPPtrCurve: 1
    pptrCurveMapping:
    - {fileID: 21300000, guid: 8cc3a8a0b3c12dd48a25728eed3f3913, type: 3}
    - {fileID: 21300000, guid: b6ead96073d1ede489eb39ddbaba599b, type: 3}
    - {fileID: 21300000, guid: 025a5f2364816cd43887a71f1fc45c45, type: 3}
    - {fileID: 21300000, guid: c8acd0adb98f12847b956e7e657f73f1, type: 3}
    - {fileID: 21300000, guid: 0838ab18966263347a5b5ee9ea901fbc, type: 3}
    - {fileID: 21300000, guid: 513a3418632bba74fbc63ff698abd84b, type: 3}
    - {fileID: 21300000, guid: da9ced1973682304f8a4fca3a379a8cc, type: 3}
    - {fileID: 21300000, guid: 6b829ac91fd1d03429f76ecfccda707a, type: 3}
    - {fileID: 21300000, guid: ae785df8c6aab804baea5dddadacdb3a, type: 3}
    - {fileID: 21300000, guid: ffa2cc8a681de0842a8eadb6f586ba6d, type: 3}
    - {fileID: 21300000, guid: 3a491492bad63a84d9dfd42ae8c7f2ed, type: 3}
    - {fileID: 21300000, guid: 477d094d283dc064db2af6d658377dc0, type: 3}
    - {fileID: 21300000, guid: a021525e0ae6adf4f9eb39d8f931ee72, type: 3}
    - {fileID: 21300000, guid: 88ab5623b7575794e9347c618f38454f, type: 3}
    - {fileID: 21300000, guid: 8dcd663cfa43cc147832240611d6ddb9, type: 3}
    - {fileID: 21300000, guid: 89aa7877ab1628a47b3c95071943af40, type: 3}
    - {fileID: 21300000, guid: 58abfdec8eb2b88478d44455e5d957c9, type: 3}
    - {fileID: 21300000, guid: 91057924ae727034eaa4ec173cd0149c, type: 3}
    - {fileID: 21300000, guid: f8a325660892bdb47a69ceaba2ea923b, type: 3}
    - {fileID: 21300000, guid: 33327d205c6874f459dfbf738d0b22ee, type: 3}
    - {fileID: 21300000, guid: 1cdbd58feafed904ebee1a03ad9d8d1f, type: 3}
    - {fileID: 21300000, guid: 4e23efb48fd6ef247a0078da9854e2d0, type: 3}
    - {fileID: 21300000, guid: d2fba5bea7772de4fabde62b82994eb3, type: 3}
    - {fileID: 21300000, guid: 118c10b984ba546429eec5fe529b263d, type: 3}
    - {fileID: 21300000, guid: fe8a477e24c2017488a6b902d29bc450, type: 3}
    - {fileID: 21300000, guid: 291ead297a3feb44fb05bdb797f0450d, type: 3}
    - {fileID: 21300000, guid: 55c86259c7f29d24993bdcca956684aa, type: 3}
    - {fileID: 21300000, guid: 102898da0b9e46f49a1d795af310bf07, type: 3}
    - {fileID: 21300000, guid: 8306448a4158197459af3fb560ec970b, type: 3}
    - {fileID: 21300000, guid: b8906db8a47ae3a4f8956d45531ee7d3, type: 3}
    - {fileID: 21300000, guid: 718dd2f3747fc8446bef45cb63491f41, type: 3}
    - {fileID: 21300000, guid: 164aea598e32b824f856697be8e66174, type: 3}
  m_AnimationClipSettings:
    serializedVersion: 2
    m_AdditiveReferencePoseClip: {fileID: 0}
    m_AdditiveReferencePoseTime: 0
    m_StartTime: 0
    m_StopTime: 2.6666665
    m_OrientationOffsetY: 0
    m_Level: 0
    m_CycleOffset: 0
    m_HasAdditiveReferencePose: 0
    m_LoopTime: 1
    m_LoopBlend: 0
    m_LoopBlendOrientation: 0
    m_LoopBlendPositionY: 0
    m_LoopBlendPositionXZ: 0
    m_KeepOriginalOrientation: 0
    m_KeepOriginalPositionY: 1
    m_KeepOriginalPositionXZ: 0
    m_HeightFromFeet: 0
    m_Mirror: 0
  m_EditorCurves: []
  m_EulerEditorCurves: []
  m_HasGenericRootTransform: 0
  m_HasMotionFloatCurves: 0
  m_Events: []
